…
``` r
# N-grams Analysis
bigrams_new <- data %>% unnest_tokens(bigram, Products, token = "ngrams", n = 2) 

bigrams_new %>% 
  count(bigram, sort = TRUE)
```

    ## # A tibble: 1,791 x 2
    ##    bigram               n
    ##    <chr>            <int>
    ##  1 digital camera      59
    ##  2 camera with         43
    ##  3 night vision        36
    ##  4 security camera     24
    ##  5 full hd             17
    ##  6 optical zoom        17
    ##  7 vlogging camera     17
    ##  8 18 55mm             16
    ##  9 canon powershot     16
    ## 10 accessory bundle    15
    ## # ... with 1,781 more rows
…
bigrams_filtered <- bigrams_separated %>%
  filter(!word1 %in% stop_words$word) %>%
  filter(!word2 %in% stop_words$word)

# new bigram counts:
bigram_counts <- bigrams_filtered %>% 
  count(word1, word2, sort = TRUE)

bigram_counts
```

    ## # A tibble: 1,447 x 3
    ##    word1     word2         n
    ##    <chr>     <chr>     <int>
    ##  1 digital   camera       59
    ##  2 night     vision       36
    ##  3 security  camera       24
    ##  4 optical   zoom         17
    ##  5 vlogging  camera       17
    ##  6 18        55mm         16
    ##  7 canon     powershot    16
    ##  8 accessory bundle       15
    ##  9 hd        1080p        15
    ## 10 video     camera       15
    ## # ... with 1,437 more rows
…
